0.000 0.000 0.000 -0.001
0.000 0.000 0.000 -0.001
0.000 -0.101 0.000 -0.001
0.000 0.000 0.000 -0.001
0.000 0.000 0.000 -0.001
0.000 0.000 0.000 -0.001
0.000 0.000 0.000 0.000
0.000 -0.101 0.000 0.000
0.000 -0.101 0.000 -0.001
0.000 -0.101 0.000 0.000
0.000 -0.101 0.000 -0.001
0.000 -0.101 0.000 -0.001
0.000 -0.101 0.000 -0.001
0.000 -0.101 0.000 -0.001
0.000 -0.101 0.000 -0.001
0.004 -0.101 0.000 0.000
0.004 -0.101 0.000 -0.001
0.184 -0.101 0.001 0.000
0.004 -0.101 0.000 -0.001
0.184 0.000 0.001 -0.001
0.000 -0.101 0.000 -0.001
0.020 0.000 0.000 -0.001
0.384 0.000 0.002 -0.001
0.452 -0.101 0.002 -0.001
0.032 -0.101 0.000 -0.001
0.008 -0.101 0.000 -0.001
0.004 0.000 0.000 -0.001
0.160 -0.101 0.001 -0.001
0.004 -0.101 0.000 -0.001
0.016 -0.101 0.000 0.000
0.236 -0.101 0.001 0.000
0.244 -0.101 0.001 -0.001
0.356 0.000 0.002 -0.001
0.268 0.000 0.001 -0.001
0.272 -0.101 0.001 0.000
0.228 0.000 0.001 0.000
0.200 0.000 0.001 0.000
0.232 0.000 0.001 -0.001
0.280 0.000 0.001 0.000
0.260 -0.101 0.001 0.000
0.352 -0.101 0.002 -0.001
0.412 0.000 0.002 0.000
0.536 0.000 0.003 -0.001
0.616 -0.101 0.003 -0.001
0.672 -0.101 0.003 -0.001
0.688 -0.101 0.003 -0.001
0.796 -0.101 0.004 -0.001
0.848 -0.101 0.004 -0.001
0.832 -0.101 0.004 -0.001
0.876 -0.101 0.004 -0.001
0.896 -0.101 0.004 -0.001
0.936 -0.101 0.005 -0.001
1.020 -0.101 0.005 -0.001
1.044 -0.101 0.005 -0.001
1.084 -0.101 0.005 -0.001
1.108 -0.101 0.006 -0.001
1.104 -0.101 0.006 0.000
1.132 -0.101 0.006 -0.001
1.188 -0.101 0.006 -0.001
1.240 0.000 0.006 0.000
1.352 0.000 0.007 0.000
1.456 0.000 0.007 0.000
1.496 0.000 0.007 0.000
1.556 -0.101 0.008 0.000
1.592 -0.101 0.008 0.000
1.656 0.000 0.008 -0.001
1.752 0.000 0.009 0.000
1.808 0.101 0.009 0.001
1.932 0.402 0.010 0.002
1.968 0.503 0.010 0.003
2.024 0.604 0.010 0.004
1.988 0.604 0.010 0.003
2.000 0.704 0.010 0.003
2.036 0.796 0.010 0.004
2.128 0.997 0.011 0.005
2.160 1.198 0.011 0.006
2.244 1.399 0.011 0.007
2.324 1.802 0.012 0.009
2.344 1.802 0.012 0.010
2.436 2.296 0.012 0.011
2.480 2.497 0.013 0.013
2.564 2.698 0.013 0.013
2.748 3.402 0.014 0.017
2.692 3.101 0.014 0.016
2.636 3.000 0.013 0.014
2.676 3.000 0.013 0.016
2.692 3.101 0.013 0.015
2.676 3.101 0.013 0.015
2.668 3.101 0.013 0.016
2.732 3.302 0.014 0.016
2.764 3.402 0.014 0.017
2.712 3.201 0.014 0.016
2.740 3.302 0.014 0.017
2.828 3.796 0.014 0.019
3.016 4.299 0.015 0.022
3.000 4.198 0.015 0.021
3.056 4.701 0.015 0.022
2.996 4.299 0.015 0.022
2.896 3.896 0.014 0.020
2.852 3.796 0.014 0.019
2.836 3.704 0.014 0.019
2.820 3.704 0.014 0.018
2.808 3.604 0.014 0.018
2.808 3.604 0.014 0.018
2.796 3.503 0.014 0.018
2.796 3.503 0.014 0.018
2.784 3.503 0.014 0.018
2.788 3.503 0.014 0.018
2.784 3.503 0.014 0.018
2.776 3.503 0.014 0.018
2.768 3.402 0.014 0.017
2.768 3.402 0.014 0.018
2.764 3.402 0.014 0.017
2.764 3.402 0.014 0.017
2.764 3.503 0.014 0.017
2.760 3.402 0.014 0.017
2.760 3.402 0.014 0.017
2.760 3.402 0.014 0.017
2.760 3.402 0.014 0.017
2.756 3.402 0.014 0.017
2.756 3.402 0.014 0.017
2.756 3.402 0.014 0.017
2.752 3.402 0.014 0.017
2.752 3.402 0.014 0.017
2.748 3.402 0.014 0.017
2.748 3.402 0.014 0.017
2.748 3.402 0.014 0.017
2.748 3.402 0.014 0.017
2.744 3.402 0.014 0.017
2.744 3.302 0.014 0.017
2.740 3.302 0.014 0.017
2.744 3.302 0.014 0.017
2.740 3.302 0.014 0.017
2.744 3.402 0.014 0.017
2.740 3.302 0.014 0.017
2.740 3.302 0.014 0.017
2.740 3.302 0.014 0.017
2.740 3.402 0.014 0.017
2.740 3.302 0.014 0.017
2.740 3.402 0.014 0.017
